<?xml version="1.0" standalone="no"?>
<!DOCTYPE svg PUBLIC "-//W3C//DTD SVG 20010904//EN"
 "http://www.w3.org/TR/2001/REC-SVG-20010904/DTD/svg10.dtd">
<svg version="1.0" xmlns="http://www.w3.org/2000/svg"
 width="1600.000000pt" height="1600.000000pt" viewBox="0 0 1600.000000 1600.000000"
 preserveAspectRatio="xMidYMid meet">
<metadata>
Created by potrace 1.11, written by Peter Selinger 2001-2013
</metadata>
<g transform="translate(0.000000,1600.000000) scale(0.100000,-0.100000)"
fill="#000000" stroke="none">
<path d="M12250 12758 c-40 -68 -86 -144 -101 -171 -16 -26 -29 -49 -29 -52 0
-2 -14 -28 -31 -57 -42 -71 -245 -477 -304 -608 -161 -356 -264 -621 -472
-1210 -187 -532 -248 -675 -318 -757 -37 -44 -91 -69 -125 -58 -30 10 -60 45
-60 72 0 19 102 613 154 898 8 44 29 165 47 270 l33 189 -17 117 c-42 287
-144 459 -272 459 -81 0 -206 -100 -324 -260 -153 -206 -297 -462 -656 -1165
-293 -573 -423 -791 -528 -880 -33 -28 -49 -35 -83 -35 -55 0 -80 10 -189 75
-110 66 -173 87 -335 114 -156 26 -266 54 -319 80 -23 12 -42 17 -46 11 -3 -5
-37 -26 -75 -46 -125 -65 -360 -329 -419 -470 -16 -38 -35 -81 -43 -96 -8 -14
-28 -79 -44 -143 -29 -116 -29 -117 -76 -151 -77 -57 -172 -167 -211 -246 -53
-106 -71 -183 -70 -313 0 -122 27 -226 81 -317 l28 -48 -127 -582 c-172 -792
-369 -1722 -369 -1742 0 -52 150 -404 195 -458 15 -17 44 -65 65 -107 52 -103
85 -133 153 -139 103 -8 170 50 328 285 147 220 211 286 289 304 30 7 49 5 79
-7 70 -28 120 -116 199 -345 94 -275 158 -396 245 -462 62 -47 103 -59 186
-55 113 5 167 36 323 186 143 136 156 142 207 90 43 -44 47 -70 26 -153 -16
-63 -83 -320 -165 -630 -47 -179 -126 -481 -160 -610 -17 -66 -40 -151 -51
-190 -32 -117 -20 -216 33 -260 78 -66 158 1 287 240 77 143 174 358 365 812
234 556 336 775 416 893 39 57 112 130 131 130 23 0 60 -58 114 -183 158 -361
276 -558 419 -700 181 -179 384 -241 611 -188 129 30 169 34 208 17 49 -20 65
-50 84 -149 18 -101 41 -143 88 -163 94 -39 171 2 376 203 95 93 165 153 177
153 29 0 69 -36 81 -73 11 -32 4 -80 -53 -382 -8 -38 -30 -158 -50 -266 l-36
-196 19 -76 c37 -141 106 -237 172 -237 96 0 219 123 400 400 228 349 630
1140 904 1781 93 215 123 318 249 839 90 370 172 610 251 735 45 71 135 181
257 316 228 252 257 295 404 584 231 459 326 739 326 965 0 203 -66 320 -227
402 -22 12 -97 40 -167 64 -143 48 -184 72 -204 120 -21 49 -3 115 70 257 35
67 113 219 174 338 301 582 436 1010 487 1543 26 278 13 510 -36 642 -22 58
-67 104 -102 104 -68 -1 -164 -78 -266 -213 -191 -256 -392 -653 -825 -1632
-169 -381 -322 -694 -373 -760 -32 -41 -45 -51 -74 -53 -24 -2 -43 3 -60 17
-22 18 -24 26 -23 98 1 63 11 112 52 253 105 357 133 542 113 735 -50 464
-266 696 -526 563 -130 -66 -293 -213 -560 -500 -115 -125 -118 -128 -160
-128 -36 0 -44 4 -49 23 -12 44 -5 83 33 202 110 335 123 386 111 438 -12 56
-34 102 -63 135 -15 16 -32 22 -63 22 -66 0 -93 -31 -174 -196 -74 -152 -102
-184 -161 -184 -52 0 -62 19 -56 101 4 60 18 106 72 244 101 256 130 346 200
625 104 416 145 645 145 817 0 94 -39 263 -60 263 -5 0 -41 -55 -80 -122z"/>
<path d="M5757 8973 c-4 -3 -7 -18 -7 -33 l0 -27 93 -5 c146 -8 230 -58 248
-150 12 -64 11 -1943 -2 -1997 -23 -101 -86 -141 -239 -150 l-95 -6 -3 -32 -3
-33 650 0 651 0 0 35 0 35 -73 0 c-133 0 -233 50 -258 128 -16 46 -25 1754
-11 1929 7 95 13 118 35 151 38 59 98 84 213 90 l94 5 0 33 0 34 -643 0 c-354
0 -647 -3 -650 -7z"/>
<path d="M2940 8255 c-198 -32 -363 -106 -466 -209 -78 -79 -117 -158 -122
-247 -5 -80 16 -129 79 -182 142 -122 378 -73 425 89 22 75 6 124 -68 217 -31
40 -38 57 -36 85 8 98 224 155 346 93 49 -25 90 -70 103 -112 5 -19 13 -113
16 -209 l5 -175 -150 -69 c-421 -191 -634 -341 -713 -502 -30 -60 -34 -80 -37
-161 -5 -126 13 -180 87 -254 162 -161 422 -128 716 93 l90 68 20 -63 c26 -85
96 -155 178 -181 88 -27 232 -20 311 17 72 33 151 100 202 169 l38 51 -28 24
-29 24 -33 -32 c-23 -22 -43 -32 -64 -32 -39 0 -59 20 -70 69 -5 21 -10 251
-10 509 0 259 -5 500 -9 537 -12 92 -43 151 -121 229 -70 70 -153 118 -250
145 -78 22 -304 27 -410 9z m280 -1058 l0 -272 -62 -42 c-118 -79 -221 -76
-292 7 -84 101 -48 248 99 395 71 72 222 185 246 185 5 0 9 -114 9 -273z"/>
<path d="M4795 8256 c-236 -55 -430 -215 -540 -447 -73 -154 -106 -375 -86
-567 16 -155 42 -250 102 -372 92 -185 235 -304 429 -356 82 -22 291 -25 370
-5 197 48 370 196 496 425 39 72 39 69 -11 98 -16 9 -23 6 -45 -23 -111 -146
-172 -198 -269 -226 -77 -22 -181 -13 -257 23 -114 53 -232 208 -278 364 -16
54 -46 218 -46 253 0 16 29 17 470 17 l470 0 0 28 c0 64 -24 213 -47 292 -38
131 -96 233 -183 321 -82 83 -138 120 -239 157 -83 30 -245 39 -336 18z m167
-116 c80 -23 149 -135 167 -273 6 -43 11 -130 11 -193 l0 -114 -247 0 -246 0
6 103 c9 146 31 239 77 334 62 126 134 170 232 143z"/>
</g>
</svg>
